[
    {
        "_id": {
            "$oid": "5f15d8852a025143f9593a7c"
        },
        "image": "https://encrypted-tbn0.gstatic.com/images?q=tbn:ANd9GcQvqYKVXOuTArrwbOLnjOpR41uOTLdChtDkhA&usqp=CAU",
        "brand": "PS3",
        "price": 250,
        "rating": 1,
        "numReviews": 0,
        "isFeatured": true,
        "name": "FIFA 20",
        "description": "The most hard FIFA ever",
        "category": {
            "$oid": "5f15d5cdcb4a6642bddc0fe9"
        },
        "countInStock": 25,
        "__v": 0
    },
    {
        "_id": {
            "$oid": "5f15d92ee520d44421ed8e9b"
        },
        "image": "https://www.lazysusanfurniture.co.uk/media/image/ba/1a/fe/jane_metal_garden_chair_1-2-1_600x600@2x.jpg",
        "brand": "IKEA",
        "price": 350.9,
        "rating": 5,
        "numReviews": 0,
        "isFeatured": true,
        "name": "Garden Chair",
        "description": "beautiful chair for garden",
        "category": {
            "$oid": "5f15d5b7cb4a6642bddc0fe8"
        },
        "countInStock": 10,
        "__v": 0
    },
    {
        "_id": {
            "$oid": "5f15d964e520d44421ed8e9c"
        },
        "image": "http://t1.gstatic.com/licensed-image?q=tbn:ANd9GcSRRNRPJ9V2ta2gQgvdmd1dJBuHw3OOVSopx_cn55UZS3gp3yanw1tW_WSYOQVDSFpSuo-f-s1jnQN9rPHRNCQ",
        "brand": "OBI",
        "price": 1350.9,
        "rating": 5,
        "numReviews": 0,
        "isFeatured": true,
        "name": "Swimming Pool",
        "description": "beautiful Swimming Pool for garden",
        "category": {
            "$oid": "5f15d5b7cb4a6642bddc0fe8"
        },
        "countInStock": 10,
        "__v": 0
    },
    {
        "_id": {
            "$oid": "5f15d9b3e520d44421ed8e9d"
        },
        "image": "https://static1.squarespace.com/static/5a51022ff43b55247f47ccfc/5a567854f9619a96fd6233bb/5b74446c40ec9afbc633e555/1534346950637/Husqvarna+545FR+%282%29.png?format=1500w",
        "brand": "OBI",
        "price": 490.9,
        "rating": 5,
        "numReviews": 0,
        "isFeatured": true,
        "name": "Grass Cut Machine",
        "description": "Grass Cut Machine for garden",
        "category": {
            "$oid": "5f15d5b7cb4a6642bddc0fe8"
        },
        "countInStock": 5,
        "__v": 0
    },
    {
        "_id": {
            "$oid": "5f15da13e520d44421ed8e9e"
        },
        "image": "https://lh3.googleusercontent.com/proxy/ZqRo12bOfeU7xg7mTMfgENdMop_Zl9srLYDKeFilLCZkych8UO4ldDlRzT-8q5scq35krZsqxprZA85RdGLEVvejnPY4RRfNZ1eXDUJRoqHHRWBB5iMCx7UxT4l6iA",
        "brand": "Mobilix",
        "price": 1000,
        "rating": 5,
        "numReviews": null,
        "isFeatured": true,
        "name": "Sofa",
        "description": "Big Sofa for living room",
        "category": {
            "$oid": "5f15d5b2cb4a6642bddc0fe7"
        },
        "countInStock": 2,
        "__v": 0
    }
]